%YAML 1.1
%TAG !u! tag:unity3d.com,2011:
--- !u!1001 &1330836537212903885
PrefabInstance:
  m_ObjectHideFlags: 0
  serializedVersion: 2
  m_Modification:
    m_TransformParent: {fileID: 0}
    m_Modifications:
    - target: {fileID: 3473625603503786971, guid: 4ddbbb18aa1ea47418d984b652a6b2c8,
        type: 3}
      propertyPath: lengthInSec
      value: 2000
      objectReference: {fileID: 0}
    - target: {fileID: 3473625603503786971, guid: 4ddbbb18aa1ea47418d984b652a6b2c8,
        type: 3}
      propertyPath: InitialModule.maxNumParticles
      value: 1000
      objectReference: {fileID: 0}
    - target: {fileID: 3473625603503786971, guid: 4ddbbb18aa1ea47418d984b652a6b2c8,
        type: 3}
      propertyPath: InitialModule.startSize.scalar
      value: 2
      objectReference: {fileID: 0}
    - target: {fileID: 6288646835841299733, guid: 4ddbbb18aa1ea47418d984b652a6b2c8,
        type: 3}
      propertyPath: m_Name
      value: Particle System Variant
      objectReference: {fileID: 0}
    - target: {fileID: 9185907401291699662, guid: 4ddbbb18aa1ea47418d984b652a6b2c8,
        type: 3}
      propertyPath: m_RootOrder
      value: 0
      objectReference: {fileID: 0}
    - target: {fileID: 9185907401291699662, guid: 4ddbbb18aa1ea47418d984b652a6b2c8,
        type: 3}
      propertyPath: m_LocalPosition.x
      value: 0
      objectReference: {fileID: 0}
    - target: {fileID: 9185907401291699662, guid: 4ddbbb18aa1ea47418d984b652a6b2c8,
        type: 3}
      propertyPath: m_LocalPosition.y
      value: 0
      objectReference: {fileID: 0}
    - target: {fileID: 9185907401291699662, guid: 4ddbbb18aa1ea47418d984b652a6b2c8,
        type: 3}
      propertyPath: m_LocalPosition.z
      value: 0
      objectReference: {fileID: 0}
    - target: {fileID: 9185907401291699662, guid: 4ddbbb18aa1ea47418d984b652a6b2c8,
        type: 3}
      propertyPath: m_LocalRotation.w
      value: 1
      objectReference: {fileID: 0}
    - target: {fileID: 9185907401291699662, guid: 4ddbbb18aa1ea47418d984b652a6b2c8,
        type: 3}
      propertyPath: m_LocalRotation.x
      value: 0
      objectReference: {fileID: 0}
    - target: {fileID: 9185907401291699662, guid: 4ddbbb18aa1ea47418d984b652a6b2c8,
        type: 3}
      propertyPath: m_LocalRotation.y
      value: 0
      objectReference: {fileID: 0}
    - target: {fileID: 9185907401291699662, guid: 4ddbbb18aa1ea47418d984b652a6b2c8,
        type: 3}
      propertyPath: m_LocalRotation.z
      value: 0
      objectReference: {fileID: 0}
    - target: {fileID: 9185907401291699662, guid: 4ddbbb18aa1ea47418d984b652a6b2c8,
        type: 3}
      propertyPath: m_LocalEulerAnglesHint.x
      value: -90
      objectReference: {fileID: 0}
    - target: {fileID: 9185907401291699662, guid: 4ddbbb18aa1ea47418d984b652a6b2c8,
        type: 3}
      propertyPath: m_LocalEulerAnglesHint.y
      value: 0
      objectReference: {fileID: 0}
    - target: {fileID: 9185907401291699662, guid: 4ddbbb18aa1ea47418d984b652a6b2c8,
        type: 3}
      propertyPath: m_LocalEulerAnglesHint.z
      value: 0
      objectReference: {fileID: 0}
    m_RemovedComponents: []
  m_SourcePrefab: {fileID: 100100000, guid: 4ddbbb18aa1ea47418d984b652a6b2c8, type: 3}
